<?xml version="1.0" encoding="UTF-8"?>
<svg width="15px" height="18px" viewBox="0 0 15 18" version="1.1" xmlns="http://www.w3.org/2000/svg" xmlns:xlink="http://www.w3.org/1999/xlink">
    <!-- Generator: Sketch 62 (91390) - https://sketch.com -->
    <title>apple-icon</title>
    <desc>Created with Sketch.</desc>
    <g id="Landings" stroke="none" stroke-width="1" fill="none" fill-rule="evenodd">
        <g id="data_corruption_landing-4" transform="translate(-681.000000, -866.000000)" fill="#5A5A5A" fill-rule="nonzero">
            <path d="M692.506517,870.384403 C693.906657,870.59149 694.900409,871.200105 695.514435,872.139112 C694.330012,872.876564 693.393623,873.98788 693.553593,875.885654 C693.695788,877.609538 694.720241,878.6181 696,879.212488 L696,879.248057 C695.632393,880.337241 695.108047,881.270715 694.468168,882.137004 L694.133901,882.584951 C693.605146,883.273333 692.935821,883.981821 691.890068,883.981821 C690.78563,883.981821 690.052031,883.28705 688.920123,883.268081 C687.722773,883.249111 687.064311,883.849032 685.969568,884 L685.596305,884 C684.792416,883.886181 684.14365,883.263338 683.671012,882.702147 C682.277335,881.043868 681.200366,878.901857 681,876.160717 L681,875.355289 C681.084832,873.393492 682.059194,871.798446 683.354304,871.025425 C684.037811,870.614412 684.977432,870.26426 686.023699,870.420761 C686.4721,870.488737 686.930195,870.638915 687.331735,870.787512 C687.71227,870.930576 688.18814,871.184297 688.638964,871.17086 C688.893461,871.163615 689.146837,871.054275 689.402363,870.954449 L689.555963,870.896588 C690.457611,870.578053 691.341484,870.212884 692.506517,870.384403 Z M692.171227,866 C692.276258,867.269398 691.780998,868.21789 691.179091,868.904756 C690.588495,869.586879 689.779759,870.248452 688.471723,870.14807 C688.384466,868.896852 688.880534,868.018706 689.481633,867.333421 C690.039104,866.69477 691.061133,866.126466 692.040343,866 L692.171227,866 Z" id="apple-icon"></path>
        </g>
    </g>
</svg>